EESchema Schematic File Version 2
LIBS:MOSFET-SW-rescue
LIBS:power
LIBS:device
LIBS:switches
LIBS:relays
LIBS:motors
LIBS:transistors
LIBS:conn
LIBS:linear
LIBS:74xx
LIBS:cmos4000
LIBS:adc-dac
LIBS:memory
LIBS:xilinx
LIBS:microcontrollers
LIBS:dsp
LIBS:microchip
LIBS:analog_switches
LIBS:motorola
LIBS:texas
LIBS:intel
LIBS:audio
LIBS:interface
LIBS:digital-audio
LIBS:philips
LIBS:display
LIBS:cypress
LIBS:siliconi
LIBS:opto
LIBS:atmel
LIBS:contrib
LIBS:valves
LIBS:suf_transistor
LIBS:suf_mosfet_driver
LIBS:suf_regulator
LIBS:6N137
LIBS:MOSFET-SW-cache
EELAYER 25 0
EELAYER END
$Descr A4 11693 8268
encoding utf-8
Sheet 1 1
Title ""
Date ""
Rev ""
Comp ""
Comment1 ""
Comment2 ""
Comment3 ""
Comment4 ""
$EndDescr
$Comp
L R R2
U 1 1 59CA6AA7
P 5425 1900
F 0 "R2" V 5505 1900 50  0000 C CNN
F 1 "100K" V 5425 1900 50  0000 C CNN
F 2 "Resistors_ThroughHole:R_Axial_DIN0207_L6.3mm_D2.5mm_P10.16mm_Horizontal" V 5355 1900 50  0001 C CNN
F 3 "" H 5425 1900 50  0001 C CNN
	1    5425 1900
	1    0    0    -1  
$EndComp
$Comp
L CONN_01X02 J1
U 1 1 59CA6D85
P 3600 1750
F 0 "J1" H 3600 1900 50  0000 C CNN
F 1 "IN" H 3600 1550 50  0000 C CNN
F 2 "Pin_Headers:Pin_Header_Straight_1x02_Pitch2.54mm" H 3600 1750 50  0001 C CNN
F 3 "" H 3600 1750 50  0001 C CNN
	1    3600 1750
	-1   0    0    -1  
$EndComp
$Comp
L GND #PWR01
U 1 1 59CA745F
P 7250 2400
F 0 "#PWR01" H 7250 2150 50  0001 C CNN
F 1 "GND" H 7250 2250 50  0000 C CNN
F 2 "" H 7250 2400 50  0001 C CNN
F 3 "" H 7250 2400 50  0001 C CNN
	1    7250 2400
	1    0    0    -1  
$EndComp
Wire Wire Line
	7250 2300 7250 2400
Wire Wire Line
	4100 1700 3800 1700
$Comp
L TC4452 U2
U 1 1 59DA4119
P 6200 2100
F 0 "U2" H 6400 1800 60  0000 C CNN
F 1 "TC4429" H 6500 2400 60  0000 C CNN
F 2 "Housings_DIP:DIP-8_W7.62mm" H 6200 2200 60  0001 C CNN
F 3 "" H 6200 2200 60  0000 C CNN
	1    6200 2100
	1    0    0    -1  
$EndComp
Wire Wire Line
	6650 2050 6800 2050
Wire Wire Line
	6800 2050 6800 2150
Wire Wire Line
	6800 2150 6650 2150
Connection ~ 6800 2100
Wire Wire Line
	6150 1500 6150 1650
Wire Wire Line
	5675 1500 6250 1500
Wire Wire Line
	6250 1500 6250 1650
Connection ~ 6200 1500
$Comp
L C_Small C3
U 1 1 59DA4412
P 5900 1625
F 0 "C3" H 5910 1695 50  0000 L CNN
F 1 "10uF/50V" V 5900 1800 50  0000 L CNN
F 2 "Capacitors_ThroughHole:C_Disc_D3.0mm_W1.6mm_P2.50mm" H 5900 1625 50  0001 C CNN
F 3 "" H 5900 1625 50  0001 C CNN
	1    5900 1625
	1    0    0    -1  
$EndComp
Wire Wire Line
	5900 1500 5900 1525
Connection ~ 6150 1500
$Comp
L GND #PWR02
U 1 1 59DA4AF0
P 5900 1775
F 0 "#PWR02" H 5900 1525 50  0001 C CNN
F 1 "GND" H 5900 1625 50  0000 C CNN
F 2 "" H 5900 1775 50  0001 C CNN
F 3 "" H 5900 1775 50  0001 C CNN
	1    5900 1775
	1    0    0    -1  
$EndComp
Wire Wire Line
	5900 1725 5900 1775
$Comp
L GND #PWR03
U 1 1 59DA4C34
P 6200 2625
F 0 "#PWR03" H 6200 2375 50  0001 C CNN
F 1 "GND" H 6200 2475 50  0000 C CNN
F 2 "" H 6200 2625 50  0001 C CNN
F 3 "" H 6200 2625 50  0001 C CNN
	1    6200 2625
	1    0    0    -1  
$EndComp
Wire Wire Line
	6150 2550 6150 2625
Wire Wire Line
	6150 2625 6250 2625
Wire Wire Line
	6250 2625 6250 2550
Connection ~ 6200 2625
$Comp
L Q_NMOS_GDS Q1
U 1 1 59E90871
P 7150 2100
F 0 "Q1" H 7350 2150 50  0000 L CNN
F 1 "IRFZ48NPBF" H 7350 2050 50  0000 L CNN
F 2 "TO_SOT_Packages_THT:TO-220-3_Vertical" H 7350 2200 50  0001 C CNN
F 3 "" H 7150 2100 50  0001 C CNN
	1    7150 2100
	1    0    0    -1  
$EndComp
Wire Wire Line
	6950 2100 6800 2100
Wire Wire Line
	6175 3950 6175 4025
Wire Wire Line
	5650 3900 5650 4025
Wire Wire Line
	5175 3950 5175 4025
$Comp
L GND #PWR04
U 1 1 59DA4940
P 6175 4025
F 0 "#PWR04" H 6175 3775 50  0001 C CNN
F 1 "GND" H 6175 3875 50  0000 C CNN
F 2 "" H 6175 4025 50  0001 C CNN
F 3 "" H 6175 4025 50  0001 C CNN
	1    6175 4025
	1    0    0    -1  
$EndComp
$Comp
L GND #PWR05
U 1 1 59DA490E
P 5650 4025
F 0 "#PWR05" H 5650 3775 50  0001 C CNN
F 1 "GND" H 5650 3875 50  0000 C CNN
F 2 "" H 5650 4025 50  0001 C CNN
F 3 "" H 5650 4025 50  0001 C CNN
	1    5650 4025
	1    0    0    -1  
$EndComp
$Comp
L GND #PWR06
U 1 1 59DA48DC
P 5175 4025
F 0 "#PWR06" H 5175 3775 50  0001 C CNN
F 1 "GND" H 5175 3875 50  0000 C CNN
F 2 "" H 5175 4025 50  0001 C CNN
F 3 "" H 5175 4025 50  0001 C CNN
	1    5175 4025
	1    0    0    -1  
$EndComp
Connection ~ 5175 3600
Wire Wire Line
	5175 3600 5250 3600
Wire Wire Line
	5175 3225 5175 3750
Connection ~ 6175 3600
Wire Wire Line
	6175 3600 6050 3600
Wire Wire Line
	6175 3250 6175 3750
$Comp
L C_Small C2
U 1 1 59DA43C7
P 6175 3850
F 0 "C2" H 6185 3920 50  0000 L CNN
F 1 "1uF/10V" H 6185 3770 50  0000 L CNN
F 2 "Capacitors_ThroughHole:C_Disc_D3.0mm_W1.6mm_P2.50mm" H 6175 3850 50  0001 C CNN
F 3 "" H 6175 3850 50  0001 C CNN
	1    6175 3850
	1    0    0    -1  
$EndComp
$Comp
L CP_Small C1
U 1 1 59DA4388
P 5175 3850
F 0 "C1" H 5185 3920 50  0000 L CNN
F 1 "100uF/16V" H 5185 3770 50  0000 L CNN
F 2 "Capacitors_ThroughHole:CP_Radial_D5.0mm_P2.00mm" H 5175 3850 50  0001 C CNN
F 3 "" H 5175 3850 50  0001 C CNN
	1    5175 3850
	1    0    0    -1  
$EndComp
$Comp
L 6N137 U3
U 1 1 59E90BFE
P 4700 1900
F 0 "U3" H 4500 2531 50  0000 L BNN
F 1 "6N137" H 4500 1200 50  0000 L BNN
F 2 "Housings_DIP:DIP-8_W7.62mm" H 4700 1900 50  0001 L BNN
F 3 "DIP-8 Vishay" H 4700 1900 50  0001 L BNN
F 4 "Vishay" H 4700 1900 50  0001 L BNN "MF"
F 5 "751-1262-5-ND" H 4700 1900 50  0001 L BNN "Digi-Key_Part_Number"
F 6 "6N137 Series Single Channel 7 V 5300 Vrms High Speed Optocoupler - DIP-8" H 4700 1900 50  0001 L BNN "Description"
F 7 "6N137" H 4700 1900 50  0001 L BNN "MP"
F 8 "https://www.digikey.hu/product-detail/en/vishay-semiconductor-opto-division/6N137/751-1262-5-ND/1731495?WT.z_cid=ref_snapeda" H 4700 1900 50  0001 L BNN "Digi-Key_Purchase_URL"
	1    4700 1900
	1    0    0    -1  
$EndComp
$Comp
L LM78L05ACZ U1
U 1 1 59E90C70
P 5650 3650
F 0 "U1" H 5800 3454 60  0000 C CNN
F 1 "LM78L05ACZ" H 5650 3850 60  0000 C CNN
F 2 "TO_SOT_Packages_THT:TO-92_Molded_Wide" H 5650 3650 60  0001 C CNN
F 3 "" H 5650 3650 60  0000 C CNN
	1    5650 3650
	1    0    0    -1  
$EndComp
$Comp
L VCC #PWR07
U 1 1 59E90DCD
P 6175 3250
F 0 "#PWR07" H 6175 3100 50  0001 C CNN
F 1 "VCC" H 6175 3400 50  0000 C CNN
F 2 "" H 6175 3250 50  0001 C CNN
F 3 "" H 6175 3250 50  0001 C CNN
	1    6175 3250
	1    0    0    -1  
$EndComp
Wire Wire Line
	5300 2100 5800 2100
$Comp
L VCC #PWR08
U 1 1 59EE3D82
P 5425 1625
F 0 "#PWR08" H 5425 1475 50  0001 C CNN
F 1 "VCC" H 5425 1775 50  0000 C CNN
F 2 "" H 5425 1625 50  0001 C CNN
F 3 "" H 5425 1625 50  0001 C CNN
	1    5425 1625
	1    0    0    -1  
$EndComp
Wire Wire Line
	5425 1700 5300 1700
Wire Wire Line
	5425 1625 5425 1750
$Comp
L GND #PWR09
U 1 1 59EE45A4
P 5375 2475
F 0 "#PWR09" H 5375 2225 50  0001 C CNN
F 1 "GND" H 5375 2325 50  0000 C CNN
F 2 "" H 5375 2475 50  0001 C CNN
F 3 "" H 5375 2475 50  0001 C CNN
	1    5375 2475
	1    0    0    -1  
$EndComp
Wire Wire Line
	5300 2400 5375 2400
Wire Wire Line
	5375 2400 5375 2475
$Comp
L CONN_01X04 J2
U 1 1 59EE45F4
P 8275 1600
F 0 "J2" H 8275 1850 50  0000 C CNN
F 1 "PWR/LOAD" V 8375 1600 50  0000 C CNN
F 2 "suf_terminal_block:TerminalBlock_5.08x4" H 8275 1600 50  0001 C CNN
F 3 "" H 8275 1600 50  0001 C CNN
	1    8275 1600
	1    0    0    -1  
$EndComp
$Comp
L VDD #PWR010
U 1 1 59EE4671
P 7975 1350
F 0 "#PWR010" H 7975 1200 50  0001 C CNN
F 1 "VDD" H 7975 1500 50  0000 C CNN
F 2 "" H 7975 1350 50  0001 C CNN
F 3 "" H 7975 1350 50  0001 C CNN
	1    7975 1350
	1    0    0    -1  
$EndComp
Wire Wire Line
	8075 1450 7975 1450
Wire Wire Line
	7975 1350 7975 1650
$Comp
L GND #PWR011
U 1 1 59EE46CD
P 7800 1550
F 0 "#PWR011" H 7800 1300 50  0001 C CNN
F 1 "GND" H 7800 1400 50  0000 C CNN
F 2 "" H 7800 1550 50  0001 C CNN
F 3 "" H 7800 1550 50  0001 C CNN
	1    7800 1550
	1    0    0    -1  
$EndComp
Wire Wire Line
	8075 1550 7800 1550
Wire Wire Line
	7975 1650 8075 1650
Connection ~ 7975 1450
Wire Wire Line
	8075 1750 7250 1750
Wire Wire Line
	7250 1650 7250 1900
$Comp
L CP_Small C4
U 1 1 59F55FCF
P 5675 1625
F 0 "C4" H 5685 1695 50  0000 L CNN
F 1 "47uF/16V" V 5675 1800 50  0000 L CNN
F 2 "Capacitors_ThroughHole:CP_Radial_D5.0mm_P2.00mm" H 5675 1625 50  0001 C CNN
F 3 "" H 5675 1625 50  0001 C CNN
	1    5675 1625
	1    0    0    -1  
$EndComp
Wire Wire Line
	5675 1500 5675 1525
Connection ~ 5900 1500
$Comp
L GND #PWR012
U 1 1 59F563B1
P 5675 1775
F 0 "#PWR012" H 5675 1525 50  0001 C CNN
F 1 "GND" H 5675 1625 50  0000 C CNN
F 2 "" H 5675 1775 50  0001 C CNN
F 3 "" H 5675 1775 50  0001 C CNN
	1    5675 1775
	1    0    0    -1  
$EndComp
Wire Wire Line
	5675 1725 5675 1775
$Comp
L D_Schottky D1
U 1 1 59F564A0
P 7250 1500
F 0 "D1" H 7250 1600 50  0000 C CNN
F 1 "MBR10100" H 7250 1400 50  0000 C CNN
F 2 "TO_SOT_Packages_THT:TO-220-2_Vertical" H 7250 1500 50  0001 C CNN
F 3 "" H 7250 1500 50  0001 C CNN
	1    7250 1500
	0    1    1    0   
$EndComp
$Comp
L VDD #PWR013
U 1 1 59F5651D
P 7250 1250
F 0 "#PWR013" H 7250 1100 50  0001 C CNN
F 1 "VDD" H 7250 1400 50  0000 C CNN
F 2 "" H 7250 1250 50  0001 C CNN
F 3 "" H 7250 1250 50  0001 C CNN
	1    7250 1250
	1    0    0    -1  
$EndComp
Wire Wire Line
	7250 1250 7250 1350
Connection ~ 7250 1750
Connection ~ 5425 1700
Wire Wire Line
	5425 2050 5425 2100
Connection ~ 5425 2100
$Comp
L CONN_01X02 J3
U 1 1 59FEA783
P 3600 2300
F 0 "J3" H 3600 2450 50  0000 C CNN
F 1 "IN_LOGIC" H 3600 2100 50  0000 C CNN
F 2 "Pin_Headers:Pin_Header_Straight_1x02_Pitch2.54mm" H 3600 2300 50  0001 C CNN
F 3 "" H 3600 2300 50  0001 C CNN
	1    3600 2300
	-1   0    0    -1  
$EndComp
$Comp
L R R1
U 1 1 59FEA908
P 3950 1900
F 0 "R1" V 4030 1900 50  0000 C CNN
F 1 "330" V 3950 1900 50  0000 C CNN
F 2 "Resistors_ThroughHole:R_Axial_DIN0207_L6.3mm_D2.5mm_P10.16mm_Horizontal" V 3880 1900 50  0001 C CNN
F 3 "" H 3950 1900 50  0001 C CNN
	1    3950 1900
	1    0    0    -1  
$EndComp
Wire Wire Line
	3800 1800 3850 1800
Wire Wire Line
	3850 1800 3850 2350
Wire Wire Line
	3850 2350 3800 2350
Wire Wire Line
	3950 1750 3950 1700
Connection ~ 3950 1700
Wire Wire Line
	3950 2050 3950 2250
Wire Wire Line
	3950 2250 3800 2250
Wire Wire Line
	4100 2100 3850 2100
Connection ~ 3850 2100
$Comp
L VDD #PWR014
U 1 1 59FEB075
P 5175 3225
F 0 "#PWR014" H 5175 3075 50  0001 C CNN
F 1 "VDD" H 5175 3375 50  0000 C CNN
F 2 "" H 5175 3225 50  0001 C CNN
F 3 "" H 5175 3225 50  0001 C CNN
	1    5175 3225
	1    0    0    -1  
$EndComp
$Comp
L VDD #PWR015
U 1 1 59FEB0C7
P 6200 1500
F 0 "#PWR015" H 6200 1350 50  0001 C CNN
F 1 "VDD" H 6200 1650 50  0000 C CNN
F 2 "" H 6200 1500 50  0001 C CNN
F 3 "" H 6200 1500 50  0001 C CNN
	1    6200 1500
	1    0    0    -1  
$EndComp
$EndSCHEMATC
