EESchema Schematic File Version 2
LIBS:MOSFET-SW-rescue
LIBS:power
LIBS:device
LIBS:switches
LIBS:relays
LIBS:motors
LIBS:transistors
LIBS:conn
LIBS:linear
LIBS:74xx
LIBS:cmos4000
LIBS:adc-dac
LIBS:memory
LIBS:xilinx
LIBS:microcontrollers
LIBS:dsp
LIBS:microchip
LIBS:analog_switches
LIBS:motorola
LIBS:texas
LIBS:intel
LIBS:audio
LIBS:interface
LIBS:digital-audio
LIBS:philips
LIBS:display
LIBS:cypress
LIBS:siliconi
LIBS:opto
LIBS:atmel
LIBS:contrib
LIBS:valves
LIBS:suf_transistor
LIBS:suf_mosfet_driver
LIBS:suf_regulator
LIBS:MOSFET-SW-cache
EELAYER 25 0
EELAYER END
$Descr A4 11693 8268
encoding utf-8
Sheet 1 1
Title ""
Date ""
Rev ""
Comp ""
Comment1 ""
Comment2 ""
Comment3 ""
Comment4 ""
$EndDescr
$Comp
L R R1
U 1 1 59CA6AA7
P 3625 2225
F 0 "R1" V 3705 2225 50  0000 C CNN
F 1 "100K" V 3625 2225 50  0000 C CNN
F 2 "Resistors_ThroughHole:R_Axial_DIN0207_L6.3mm_D2.5mm_P10.16mm_Horizontal" V 3555 2225 50  0001 C CNN
F 3 "" H 3625 2225 50  0001 C CNN
	1    3625 2225
	1    0    0    -1  
$EndComp
$Comp
L CONN_01X02 J1
U 1 1 59CA6D85
P 2925 1975
F 0 "J1" H 2925 2125 50  0000 C CNN
F 1 "IN" H 2925 1775 50  0000 C CNN
F 2 "suf_connector_ncw:CONN_NCW254-02S" H 2925 1975 50  0001 C CNN
F 3 "" H 2925 1975 50  0001 C CNN
	1    2925 1975
	-1   0    0    -1  
$EndComp
$Comp
L GND #PWR1
U 1 1 59CA740D
P 3125 2125
F 0 "#PWR1" H 3125 1875 50  0001 C CNN
F 1 "GND" H 3125 1975 50  0000 C CNN
F 2 "" H 3125 2125 50  0001 C CNN
F 3 "" H 3125 2125 50  0001 C CNN
	1    3125 2125
	1    0    0    -1  
$EndComp
$Comp
L GND #PWR2
U 1 1 59CA743D
P 3625 2450
F 0 "#PWR2" H 3625 2200 50  0001 C CNN
F 1 "GND" H 3625 2300 50  0000 C CNN
F 2 "" H 3625 2450 50  0001 C CNN
F 3 "" H 3625 2450 50  0001 C CNN
	1    3625 2450
	1    0    0    -1  
$EndComp
$Comp
L GND #PWR8
U 1 1 59CA745F
P 5075 2525
F 0 "#PWR8" H 5075 2275 50  0001 C CNN
F 1 "GND" H 5075 2375 50  0000 C CNN
F 2 "" H 5075 2525 50  0001 C CNN
F 3 "" H 5075 2525 50  0001 C CNN
	1    5075 2525
	1    0    0    -1  
$EndComp
$Comp
L GND #PWR9
U 1 1 59CA7488
P 5825 2525
F 0 "#PWR9" H 5825 2275 50  0001 C CNN
F 1 "GND" H 5825 2375 50  0000 C CNN
F 2 "" H 5825 2525 50  0001 C CNN
F 3 "" H 5825 2525 50  0001 C CNN
	1    5825 2525
	1    0    0    -1  
$EndComp
$Comp
L +12V #PWR5
U 1 1 59CA74D3
P 4175 1325
F 0 "#PWR5" H 4175 1175 50  0001 C CNN
F 1 "+12V" H 4175 1465 50  0000 C CNN
F 2 "" H 4175 1325 50  0001 C CNN
F 3 "" H 4175 1325 50  0001 C CNN
	1    4175 1325
	1    0    0    -1  
$EndComp
Wire Wire Line
	3125 1925 3775 1925
Wire Wire Line
	3625 2075 3625 1925
Connection ~ 3625 1925
Wire Wire Line
	3625 2375 3625 2450
Wire Wire Line
	5850 1975 5850 2075
Wire Wire Line
	3125 2025 3125 2125
$Comp
L TC4429 U1
U 1 1 59DA4119
P 4175 1925
F 0 "U1" H 4375 1625 60  0000 C CNN
F 1 "TC4429" H 4475 2225 60  0000 C CNN
F 2 "Housings_DIP:DIP-8_W7.62mm_LongPads" H 4175 2025 60  0001 C CNN
F 3 "" H 4175 2025 60  0000 C CNN
	1    4175 1925
	1    0    0    -1  
$EndComp
Wire Wire Line
	4625 1875 4775 1875
Wire Wire Line
	4775 1875 4775 1975
Wire Wire Line
	4775 1975 4625 1975
Connection ~ 4775 1925
Wire Wire Line
	4125 1475 4125 1325
Wire Wire Line
	3675 1325 4225 1325
Wire Wire Line
	4225 1325 4225 1475
Connection ~ 4175 1325
$Comp
L C_Small C2
U 1 1 59DA4412
P 3875 1450
F 0 "C2" H 3885 1520 50  0000 L CNN
F 1 "1uF/50V" V 3875 1625 50  0000 L CNN
F 2 "Capacitors_ThroughHole:C_Disc_D3.0mm_W1.6mm_P2.50mm" H 3875 1450 50  0001 C CNN
F 3 "" H 3875 1450 50  0001 C CNN
	1    3875 1450
	1    0    0    -1  
$EndComp
Wire Wire Line
	3875 1325 3875 1350
Connection ~ 4125 1325
$Comp
L GND #PWR4
U 1 1 59DA4AF0
P 3875 1600
F 0 "#PWR4" H 3875 1350 50  0001 C CNN
F 1 "GND" H 3875 1450 50  0000 C CNN
F 2 "" H 3875 1600 50  0001 C CNN
F 3 "" H 3875 1600 50  0001 C CNN
	1    3875 1600
	1    0    0    -1  
$EndComp
Wire Wire Line
	3875 1550 3875 1600
$Comp
L GND #PWR6
U 1 1 59DA4C34
P 4175 2450
F 0 "#PWR6" H 4175 2200 50  0001 C CNN
F 1 "GND" H 4175 2300 50  0000 C CNN
F 2 "" H 4175 2450 50  0001 C CNN
F 3 "" H 4175 2450 50  0001 C CNN
	1    4175 2450
	1    0    0    -1  
$EndComp
Wire Wire Line
	4125 2375 4125 2450
Wire Wire Line
	4125 2450 4225 2450
Wire Wire Line
	4225 2450 4225 2375
Connection ~ 4175 2450
$Comp
L CONN_01X04 J2
U 1 1 59DA689B
P 6050 2225
F 0 "J2" H 6050 2475 50  0000 C CNN
F 1 "IN/OUT" V 6150 2225 50  0000 C CNN
F 2 "suf_terminal_block:TerminalBlock_5.08x4" H 6050 2225 50  0001 C CNN
F 3 "" H 6050 2225 50  0001 C CNN
	1    6050 2225
	1    0    0    -1  
$EndComp
Wire Wire Line
	5825 2525 5825 2175
Wire Wire Line
	5825 2175 5850 2175
$Comp
L Q_PMOS_GDS Q1
U 1 1 59DBE497
P 4975 1925
F 0 "Q1" H 5175 1975 50  0000 L CNN
F 1 "IRF4905PBF" H 5175 1875 50  0000 L CNN
F 2 "TO_SOT_Packages_THT:TO-220-3_Vertical" H 5175 2025 50  0001 C CNN
F 3 "" H 4975 1925 50  0001 C CNN
	1    4975 1925
	1    0    0    1   
$EndComp
$Comp
L D_Schottky D1
U 1 1 59DC3DBD
P 5075 2325
F 0 "D1" H 5075 2425 50  0000 C CNN
F 1 "MBR1660" H 5075 2225 50  0000 C CNN
F 2 "TO_SOT_Packages_THT:TO-220-2_Vertical" H 5075 2325 50  0001 C CNN
F 3 "" H 5075 2325 50  0001 C CNN
	1    5075 2325
	0    1    1    0   
$EndComp
Wire Wire Line
	5075 2475 5075 2525
Wire Wire Line
	5075 2125 5075 2175
$Comp
L +12V #PWR7
U 1 1 59DC3EA9
P 5075 1650
F 0 "#PWR7" H 5075 1500 50  0001 C CNN
F 1 "+12V" H 5075 1790 50  0000 C CNN
F 2 "" H 5075 1650 50  0001 C CNN
F 3 "" H 5075 1650 50  0001 C CNN
	1    5075 1650
	1    0    0    -1  
$EndComp
Wire Wire Line
	5075 1650 5075 1725
$Comp
L +12V #PWR10
U 1 1 59DC3F1B
P 5850 1975
F 0 "#PWR10" H 5850 1825 50  0001 C CNN
F 1 "+12V" H 5850 2115 50  0000 C CNN
F 2 "" H 5850 1975 50  0001 C CNN
F 3 "" H 5850 1975 50  0001 C CNN
	1    5850 1975
	1    0    0    -1  
$EndComp
Wire Wire Line
	5850 2275 5425 2275
Wire Wire Line
	5425 2275 5425 2150
Wire Wire Line
	5425 2150 5075 2150
Connection ~ 5075 2150
Wire Wire Line
	5850 2375 5825 2375
Connection ~ 5825 2375
$Comp
L CP_Small C1
U 1 1 59E18DE7
P 3675 1450
F 0 "C1" H 3685 1520 50  0000 L CNN
F 1 "47uF/25V" V 3675 1625 50  0000 L CNN
F 2 "Capacitors_ThroughHole:CP_Radial_D5.0mm_P2.00mm" H 3675 1450 50  0001 C CNN
F 3 "" H 3675 1450 50  0001 C CNN
	1    3675 1450
	1    0    0    -1  
$EndComp
$Comp
L GND #PWR3
U 1 1 59E18FBB
P 3675 1600
F 0 "#PWR3" H 3675 1350 50  0001 C CNN
F 1 "GND" H 3675 1450 50  0000 C CNN
F 2 "" H 3675 1600 50  0001 C CNN
F 3 "" H 3675 1600 50  0001 C CNN
	1    3675 1600
	1    0    0    -1  
$EndComp
Wire Wire Line
	3675 1550 3675 1600
Wire Wire Line
	3675 1350 3675 1325
Connection ~ 3875 1325
$EndSCHEMATC
