EESchema Schematic File Version 2
LIBS:MOSFET-SW-rescue
LIBS:power
LIBS:device
LIBS:switches
LIBS:relays
LIBS:motors
LIBS:transistors
LIBS:conn
LIBS:linear
LIBS:regul
LIBS:74xx
LIBS:cmos4000
LIBS:adc-dac
LIBS:memory
LIBS:xilinx
LIBS:microcontrollers
LIBS:dsp
LIBS:microchip
LIBS:analog_switches
LIBS:motorola
LIBS:texas
LIBS:intel
LIBS:audio
LIBS:interface
LIBS:digital-audio
LIBS:philips
LIBS:display
LIBS:cypress
LIBS:siliconi
LIBS:opto
LIBS:atmel
LIBS:contrib
LIBS:valves
EELAYER 25 0
EELAYER END
$Descr A4 11693 8268
encoding utf-8
Sheet 1 1
Title ""
Date ""
Rev ""
Comp ""
Comment1 ""
Comment2 ""
Comment3 ""
Comment4 ""
$EndDescr
$Comp
L Q_NMOS_GSD Q1
U 1 1 59CA69D8
P 6550 3750
F 0 "Q1" H 6750 3800 50  0000 L CNN
F 1 "TSM2312" H 6750 3700 50  0000 L CNN
F 2 "TO_SOT_Packages_SMD:SOT-23_Handsoldering" H 6750 3850 50  0001 C CNN
F 3 "" H 6550 3750 50  0001 C CNN
	1    6550 3750
	1    0    0    -1  
$EndComp
$Comp
L R R2
U 1 1 59CA6AA7
P 6200 4050
F 0 "R2" V 6280 4050 50  0000 C CNN
F 1 "100K" V 6200 4050 50  0000 C CNN
F 2 "Resistors_SMD:R_0603_HandSoldering" V 6130 4050 50  0001 C CNN
F 3 "" H 6200 4050 50  0001 C CNN
	1    6200 4050
	1    0    0    -1  
$EndComp
$Comp
L R R1
U 1 1 59CA6B54
P 5925 3750
F 0 "R1" V 6005 3750 50  0000 C CNN
F 1 "100" V 5925 3750 50  0000 C CNN
F 2 "Resistors_SMD:R_0603_HandSoldering" V 5855 3750 50  0001 C CNN
F 3 "" H 5925 3750 50  0001 C CNN
	1    5925 3750
	0    1    1    0   
$EndComp
$Comp
L CONN_01X02 J3
U 1 1 59CA6BE5
P 8100 3175
F 0 "J3" H 8100 3325 50  0000 C CNN
F 1 "PWR" H 8100 3025 50  0000 C CNN
F 2 "suf_connector_ncw:CONN_NCW254-02S" H 8100 3175 50  0001 C CNN
F 3 "" H 8100 3175 50  0001 C CNN
	1    8100 3175
	1    0    0    -1  
$EndComp
$Comp
L CONN_01X02 J2
U 1 1 59CA6CA0
P 7200 3300
F 0 "J2" H 7200 3450 50  0000 C CNN
F 1 "OUT" H 7200 3150 50  0000 C CNN
F 2 "suf_connector_ncw:CONN_NCW254-02S" H 7200 3300 50  0001 C CNN
F 3 "" H 7200 3300 50  0001 C CNN
	1    7200 3300
	1    0    0    -1  
$EndComp
$Comp
L CONN_01X02 J1
U 1 1 59CA6D85
P 5500 3800
F 0 "J1" H 5500 3950 50  0000 C CNN
F 1 "IN" H 5500 3650 50  0000 C CNN
F 2 "Pin_Headers:Pin_Header_Straight_1x02_Pitch2.54mm" H 5500 3800 50  0001 C CNN
F 3 "" H 5500 3800 50  0001 C CNN
	1    5500 3800
	-1   0    0    -1  
$EndComp
$Comp
L D_Schottky D1
U 1 1 59CA7216
P 6650 3300
F 0 "D1" H 6650 3400 50  0000 C CNN
F 1 "SS14" H 6650 3200 50  0000 C CNN
F 2 "Diodes_SMD:D_SMA_Handsoldering" H 6650 3300 50  0001 C CNN
F 3 "" H 6650 3300 50  0001 C CNN
	1    6650 3300
	0    1    1    0   
$EndComp
$Comp
L GND #PWR1
U 1 1 59CA740D
P 5700 3950
F 0 "#PWR1" H 5700 3700 50  0001 C CNN
F 1 "GND" H 5700 3800 50  0000 C CNN
F 2 "" H 5700 3950 50  0001 C CNN
F 3 "" H 5700 3950 50  0001 C CNN
	1    5700 3950
	1    0    0    -1  
$EndComp
$Comp
L GND #PWR2
U 1 1 59CA743D
P 6200 4275
F 0 "#PWR2" H 6200 4025 50  0001 C CNN
F 1 "GND" H 6200 4125 50  0000 C CNN
F 2 "" H 6200 4275 50  0001 C CNN
F 3 "" H 6200 4275 50  0001 C CNN
	1    6200 4275
	1    0    0    -1  
$EndComp
$Comp
L GND #PWR4
U 1 1 59CA745F
P 6650 4050
F 0 "#PWR4" H 6650 3800 50  0001 C CNN
F 1 "GND" H 6650 3900 50  0000 C CNN
F 2 "" H 6650 4050 50  0001 C CNN
F 3 "" H 6650 4050 50  0001 C CNN
	1    6650 4050
	1    0    0    -1  
$EndComp
$Comp
L GND #PWR6
U 1 1 59CA7488
P 7900 3325
F 0 "#PWR6" H 7900 3075 50  0001 C CNN
F 1 "GND" H 7900 3175 50  0000 C CNN
F 2 "" H 7900 3325 50  0001 C CNN
F 3 "" H 7900 3325 50  0001 C CNN
	1    7900 3325
	1    0    0    -1  
$EndComp
$Comp
L +12V #PWR5
U 1 1 59CA74AA
P 7900 3025
F 0 "#PWR5" H 7900 2875 50  0001 C CNN
F 1 "+12V" H 7900 3165 50  0000 C CNN
F 2 "" H 7900 3025 50  0001 C CNN
F 3 "" H 7900 3025 50  0001 C CNN
	1    7900 3025
	1    0    0    -1  
$EndComp
$Comp
L +12V #PWR3
U 1 1 59CA74D3
P 6650 3050
F 0 "#PWR3" H 6650 2900 50  0001 C CNN
F 1 "+12V" H 6650 3190 50  0000 C CNN
F 2 "" H 6650 3050 50  0001 C CNN
F 3 "" H 6650 3050 50  0001 C CNN
	1    6650 3050
	1    0    0    -1  
$EndComp
Wire Wire Line
	6650 3050 6650 3150
Wire Wire Line
	6650 3450 6650 3550
Wire Wire Line
	6650 3100 6875 3100
Wire Wire Line
	6875 3100 6875 3250
Wire Wire Line
	6875 3250 7000 3250
Connection ~ 6650 3100
Wire Wire Line
	6650 3500 6875 3500
Wire Wire Line
	6875 3500 6875 3350
Wire Wire Line
	6875 3350 7000 3350
Connection ~ 6650 3500
Wire Wire Line
	6650 3950 6650 4050
Wire Wire Line
	6075 3750 6350 3750
Wire Wire Line
	6200 3900 6200 3750
Connection ~ 6200 3750
Wire Wire Line
	6200 4200 6200 4275
Wire Wire Line
	7900 3225 7900 3325
Wire Wire Line
	7900 3025 7900 3125
Wire Wire Line
	5775 3750 5700 3750
Wire Wire Line
	5700 3850 5700 3950
$EndSCHEMATC
