EESchema Schematic File Version 2
LIBS:MOSFET-SW-rescue
LIBS:power
LIBS:device
LIBS:switches
LIBS:relays
LIBS:motors
LIBS:transistors
LIBS:conn
LIBS:linear
LIBS:74xx
LIBS:cmos4000
LIBS:adc-dac
LIBS:memory
LIBS:xilinx
LIBS:microcontrollers
LIBS:dsp
LIBS:microchip
LIBS:analog_switches
LIBS:motorola
LIBS:texas
LIBS:intel
LIBS:audio
LIBS:interface
LIBS:digital-audio
LIBS:philips
LIBS:display
LIBS:cypress
LIBS:siliconi
LIBS:opto
LIBS:atmel
LIBS:contrib
LIBS:valves
LIBS:suf_transistor
LIBS:suf_mosfet_driver
LIBS:suf_regulator
LIBS:6N137
LIBS:MOSFET-SW-cache
EELAYER 25 0
EELAYER END
$Descr A4 11693 8268
encoding utf-8
Sheet 1 1
Title ""
Date ""
Rev ""
Comp ""
Comment1 ""
Comment2 ""
Comment3 ""
Comment4 ""
$EndDescr
$Comp
L R R2
U 1 1 59CA6AA7
P 5425 1900
F 0 "R2" V 5505 1900 50  0000 C CNN
F 1 "100K" V 5425 1900 50  0000 C CNN
F 2 "Resistors_ThroughHole:R_Axial_DIN0207_L6.3mm_D2.5mm_P10.16mm_Horizontal" V 5355 1900 50  0001 C CNN
F 3 "" H 5425 1900 50  0001 C CNN
	1    5425 1900
	1    0    0    -1  
$EndComp
$Comp
L CONN_01X02 J1
U 1 1 59CA6D85
P 3600 1750
F 0 "J1" H 3600 1900 50  0000 C CNN
F 1 "IN" H 3600 1550 50  0000 C CNN
F 2 "Pin_Headers:Pin_Header_Straight_1x02_Pitch2.54mm" H 3600 1750 50  0001 C CNN
F 3 "" H 3600 1750 50  0001 C CNN
	1    3600 1750
	-1   0    0    -1  
$EndComp
$Comp
L GND #PWR12
U 1 1 59CA745F
P 7250 2400
F 0 "#PWR12" H 7250 2150 50  0001 C CNN
F 1 "GND" H 7250 2250 50  0000 C CNN
F 2 "" H 7250 2400 50  0001 C CNN
F 3 "" H 7250 2400 50  0001 C CNN
	1    7250 2400
	1    0    0    -1  
$EndComp
Wire Wire Line
	7250 2300 7250 2400
Wire Wire Line
	3800 1700 4100 1700
$Comp
L TC4452 U2
U 1 1 59DA4119
P 6200 2100
F 0 "U2" H 6400 1800 60  0000 C CNN
F 1 "TC4429" H 6500 2400 60  0000 C CNN
F 2 "Housings_DIP:DIP-8_W7.62mm" H 6200 2200 60  0001 C CNN
F 3 "" H 6200 2200 60  0000 C CNN
	1    6200 2100
	1    0    0    -1  
$EndComp
Wire Wire Line
	6650 2050 6800 2050
Wire Wire Line
	6800 2050 6800 2150
Wire Wire Line
	6800 2150 6650 2150
Connection ~ 6800 2100
Wire Wire Line
	6150 1500 6150 1650
Wire Wire Line
	5675 1500 6250 1500
Wire Wire Line
	6250 1500 6250 1650
Connection ~ 6200 1500
$Comp
L C_Small C3
U 1 1 59DA4412
P 5900 1625
F 0 "C3" H 5910 1695 50  0000 L CNN
F 1 "10uF/50V" V 5900 1800 50  0000 L CNN
F 2 "Capacitors_ThroughHole:C_Disc_D3.0mm_W1.6mm_P2.50mm" H 5900 1625 50  0001 C CNN
F 3 "" H 5900 1625 50  0001 C CNN
	1    5900 1625
	1    0    0    -1  
$EndComp
Wire Wire Line
	5900 1500 5900 1525
Connection ~ 6150 1500
$Comp
L GND #PWR9
U 1 1 59DA4AF0
P 5900 1775
F 0 "#PWR9" H 5900 1525 50  0001 C CNN
F 1 "GND" H 5900 1625 50  0000 C CNN
F 2 "" H 5900 1775 50  0001 C CNN
F 3 "" H 5900 1775 50  0001 C CNN
	1    5900 1775
	1    0    0    -1  
$EndComp
Wire Wire Line
	5900 1725 5900 1775
$Comp
L GND #PWR11
U 1 1 59DA4C34
P 6200 2625
F 0 "#PWR11" H 6200 2375 50  0001 C CNN
F 1 "GND" H 6200 2475 50  0000 C CNN
F 2 "" H 6200 2625 50  0001 C CNN
F 3 "" H 6200 2625 50  0001 C CNN
	1    6200 2625
	1    0    0    -1  
$EndComp
Wire Wire Line
	6150 2550 6150 2625
Wire Wire Line
	6150 2625 6250 2625
Wire Wire Line
	6250 2625 6250 2550
Connection ~ 6200 2625
$Comp
L Q_NMOS_GDS Q1
U 1 1 59E90871
P 7150 2100
F 0 "Q1" H 7100 2300 50  0000 L CNN
F 1 "Q_NMOS_GDS" H 6725 1925 50  0000 L CNN
F 2 "TO_SOT_Packages_THT:TO-220-3_Vertical" H 7350 2200 50  0001 C CNN
F 3 "" H 7150 2100 50  0001 C CNN
	1    7150 2100
	1    0    0    -1  
$EndComp
Wire Wire Line
	6950 2100 6800 2100
Wire Wire Line
	2125 1750 2125 1825
Wire Wire Line
	1600 1700 1600 1825
Wire Wire Line
	1125 1750 1125 1825
$Comp
L GND #PWR5
U 1 1 59DA4940
P 2125 1825
F 0 "#PWR5" H 2125 1575 50  0001 C CNN
F 1 "GND" H 2125 1675 50  0000 C CNN
F 2 "" H 2125 1825 50  0001 C CNN
F 3 "" H 2125 1825 50  0001 C CNN
	1    2125 1825
	1    0    0    -1  
$EndComp
$Comp
L GND #PWR3
U 1 1 59DA490E
P 1600 1825
F 0 "#PWR3" H 1600 1575 50  0001 C CNN
F 1 "GND" H 1600 1675 50  0000 C CNN
F 2 "" H 1600 1825 50  0001 C CNN
F 3 "" H 1600 1825 50  0001 C CNN
	1    1600 1825
	1    0    0    -1  
$EndComp
$Comp
L GND #PWR2
U 1 1 59DA48DC
P 1125 1825
F 0 "#PWR2" H 1125 1575 50  0001 C CNN
F 1 "GND" H 1125 1675 50  0000 C CNN
F 2 "" H 1125 1825 50  0001 C CNN
F 3 "" H 1125 1825 50  0001 C CNN
	1    1125 1825
	1    0    0    -1  
$EndComp
Connection ~ 1125 1400
Wire Wire Line
	1125 1400 1200 1400
Wire Wire Line
	1125 1025 1125 1550
Connection ~ 2125 1400
Wire Wire Line
	2125 1400 2000 1400
Wire Wire Line
	2125 1050 2125 1550
$Comp
L C_Small C2
U 1 1 59DA43C7
P 2125 1650
F 0 "C2" H 2135 1720 50  0000 L CNN
F 1 "1uF/10V" H 2135 1570 50  0000 L CNN
F 2 "Capacitors_ThroughHole:C_Disc_D3.0mm_W1.6mm_P2.50mm" H 2125 1650 50  0001 C CNN
F 3 "" H 2125 1650 50  0001 C CNN
	1    2125 1650
	1    0    0    -1  
$EndComp
$Comp
L CP_Small C1
U 1 1 59DA4388
P 1125 1650
F 0 "C1" H 1135 1720 50  0000 L CNN
F 1 "100uF/16V" H 1135 1570 50  0000 L CNN
F 2 "Capacitors_ThroughHole:CP_Radial_D5.0mm_P2.00mm" H 1125 1650 50  0001 C CNN
F 3 "" H 1125 1650 50  0001 C CNN
	1    1125 1650
	1    0    0    -1  
$EndComp
$Comp
L 6N137 U3
U 1 1 59E90BFE
P 4700 1900
F 0 "U3" H 4500 2531 50  0000 L BNN
F 1 "6N137" H 4500 1200 50  0000 L BNN
F 2 "Housings_DIP:DIP-8_W7.62mm" H 4700 1900 50  0001 L BNN
F 3 "DIP-8 Vishay" H 4700 1900 50  0001 L BNN
F 4 "Vishay" H 4700 1900 50  0001 L BNN "MF"
F 5 "751-1262-5-ND" H 4700 1900 50  0001 L BNN "Digi-Key_Part_Number"
F 6 "6N137 Series Single Channel 7 V 5300 Vrms High Speed Optocoupler - DIP-8" H 4700 1900 50  0001 L BNN "Description"
F 7 "6N137" H 4700 1900 50  0001 L BNN "MP"
F 8 "https://www.digikey.hu/product-detail/en/vishay-semiconductor-opto-division/6N137/751-1262-5-ND/1731495?WT.z_cid=ref_snapeda" H 4700 1900 50  0001 L BNN "Digi-Key_Purchase_URL"
	1    4700 1900
	1    0    0    -1  
$EndComp
$Comp
L LM78L05ACZ U1
U 1 1 59E90C70
P 1600 1450
F 0 "U1" H 1750 1254 60  0000 C CNN
F 1 "LM78L05ACZ" H 1600 1650 60  0000 C CNN
F 2 "TO_SOT_Packages_THT:TO-92_Molded_Wide" H 1600 1450 60  0001 C CNN
F 3 "" H 1600 1450 60  0000 C CNN
	1    1600 1450
	1    0    0    -1  
$EndComp
$Comp
L VCC #PWR4
U 1 1 59E90DCD
P 2125 1050
F 0 "#PWR4" H 2125 900 50  0001 C CNN
F 1 "VCC" H 2125 1200 50  0000 C CNN
F 2 "" H 2125 1050 50  0001 C CNN
F 3 "" H 2125 1050 50  0001 C CNN
	1    2125 1050
	1    0    0    -1  
$EndComp
Wire Wire Line
	5300 2100 5800 2100
$Comp
L VCC #PWR7
U 1 1 59EE3D82
P 5425 1625
F 0 "#PWR7" H 5425 1475 50  0001 C CNN
F 1 "VCC" H 5425 1775 50  0000 C CNN
F 2 "" H 5425 1625 50  0001 C CNN
F 3 "" H 5425 1625 50  0001 C CNN
	1    5425 1625
	1    0    0    -1  
$EndComp
Wire Wire Line
	5425 1700 5300 1700
Wire Wire Line
	5425 1625 5425 1750
$Comp
L GND #PWR6
U 1 1 59EE45A4
P 5375 2475
F 0 "#PWR6" H 5375 2225 50  0001 C CNN
F 1 "GND" H 5375 2325 50  0000 C CNN
F 2 "" H 5375 2475 50  0001 C CNN
F 3 "" H 5375 2475 50  0001 C CNN
	1    5375 2475
	1    0    0    -1  
$EndComp
Wire Wire Line
	5300 2400 5375 2400
Wire Wire Line
	5375 2400 5375 2475
$Comp
L VDD #PWR13
U 1 1 59EE4671
P 7275 1300
F 0 "#PWR13" H 7275 1150 50  0001 C CNN
F 1 "VDD" H 7275 1450 50  0000 C CNN
F 2 "" H 7275 1300 50  0001 C CNN
F 3 "" H 7275 1300 50  0001 C CNN
	1    7275 1300
	1    0    0    -1  
$EndComp
Wire Wire Line
	7375 1400 7275 1400
Wire Wire Line
	7275 1400 7275 1300
$Comp
L GND #PWR14
U 1 1 59EE46CD
P 7275 1500
F 0 "#PWR14" H 7275 1250 50  0001 C CNN
F 1 "GND" H 7275 1350 50  0000 C CNN
F 2 "" H 7275 1500 50  0001 C CNN
F 3 "" H 7275 1500 50  0001 C CNN
	1    7275 1500
	1    0    0    -1  
$EndComp
Wire Wire Line
	7375 1500 7275 1500
$Comp
L CP_Small C4
U 1 1 59F55FCF
P 5675 1625
F 0 "C4" H 5685 1695 50  0000 L CNN
F 1 "47uF/16V" V 5675 1800 50  0000 L CNN
F 2 "Capacitors_ThroughHole:CP_Radial_D5.0mm_P2.00mm" H 5675 1625 50  0001 C CNN
F 3 "" H 5675 1625 50  0001 C CNN
	1    5675 1625
	1    0    0    -1  
$EndComp
Wire Wire Line
	5675 1500 5675 1525
Connection ~ 5900 1500
$Comp
L GND #PWR8
U 1 1 59F563B1
P 5675 1775
F 0 "#PWR8" H 5675 1525 50  0001 C CNN
F 1 "GND" H 5675 1625 50  0000 C CNN
F 2 "" H 5675 1775 50  0001 C CNN
F 3 "" H 5675 1775 50  0001 C CNN
	1    5675 1775
	1    0    0    -1  
$EndComp
Wire Wire Line
	5675 1725 5675 1775
Connection ~ 5425 1700
Wire Wire Line
	5425 2050 5425 2100
Connection ~ 5425 2100
$Comp
L CONN_01X02 J3
U 1 1 59FEA783
P 3600 2300
F 0 "J3" H 3600 2450 50  0000 C CNN
F 1 "IN_LOGIC" H 3600 2100 50  0000 C CNN
F 2 "Pin_Headers:Pin_Header_Straight_1x02_Pitch2.54mm" H 3600 2300 50  0001 C CNN
F 3 "" H 3600 2300 50  0001 C CNN
	1    3600 2300
	-1   0    0    -1  
$EndComp
$Comp
L R R1
U 1 1 59FEA908
P 3950 1900
F 0 "R1" V 4030 1900 50  0000 C CNN
F 1 "330" V 3950 1900 50  0000 C CNN
F 2 "Resistors_ThroughHole:R_Axial_DIN0207_L6.3mm_D2.5mm_P10.16mm_Horizontal" V 3880 1900 50  0001 C CNN
F 3 "" H 3950 1900 50  0001 C CNN
	1    3950 1900
	1    0    0    -1  
$EndComp
Wire Wire Line
	3800 1800 3850 1800
Wire Wire Line
	3850 1800 3850 2350
Wire Wire Line
	3850 2350 3800 2350
Wire Wire Line
	3950 1750 3950 1700
Connection ~ 3950 1700
Wire Wire Line
	3950 2050 3950 2250
Wire Wire Line
	3950 2250 3800 2250
Wire Wire Line
	4100 2100 3850 2100
Connection ~ 3850 2100
$Comp
L VDD #PWR1
U 1 1 59FEB075
P 1125 1025
F 0 "#PWR1" H 1125 875 50  0001 C CNN
F 1 "VDD" H 1125 1175 50  0000 C CNN
F 2 "" H 1125 1025 50  0001 C CNN
F 3 "" H 1125 1025 50  0001 C CNN
	1    1125 1025
	1    0    0    -1  
$EndComp
$Comp
L VDD #PWR10
U 1 1 59FEB0C7
P 6200 1500
F 0 "#PWR10" H 6200 1350 50  0001 C CNN
F 1 "VDD" H 6200 1650 50  0000 C CNN
F 2 "" H 6200 1500 50  0001 C CNN
F 3 "" H 6200 1500 50  0001 C CNN
	1    6200 1500
	1    0    0    -1  
$EndComp
$Comp
L CONN_01X02 J4
U 1 1 59FEB0CE
P 7700 2100
F 0 "J4" H 7700 2250 50  0000 C CNN
F 1 "SW" V 7800 2100 50  0000 C CNN
F 2 "suf_terminal_block:TerminalBlock_5.08x2" H 7700 2100 50  0001 C CNN
F 3 "" H 7700 2100 50  0001 C CNN
	1    7700 2100
	1    0    0    -1  
$EndComp
$Comp
L CONN_01X02 J2
U 1 1 59FEB143
P 7575 1450
F 0 "J2" H 7575 1600 50  0000 C CNN
F 1 "PWR" V 7675 1450 50  0000 C CNN
F 2 "suf_connector_ncw:CONN_NCW254-02S" H 7575 1450 50  0001 C CNN
F 3 "" H 7575 1450 50  0001 C CNN
	1    7575 1450
	1    0    0    -1  
$EndComp
Wire Wire Line
	7250 1900 7500 1900
Wire Wire Line
	7500 1900 7500 2050
Wire Wire Line
	7500 2150 7500 2350
Wire Wire Line
	7500 2350 7250 2350
Connection ~ 7250 2350
$EndSCHEMATC
