EESchema Schematic File Version 2
LIBS:power
LIBS:device
LIBS:transistors
LIBS:conn
LIBS:linear
LIBS:regul
LIBS:74xx
LIBS:cmos4000
LIBS:adc-dac
LIBS:memory
LIBS:xilinx
LIBS:microcontrollers
LIBS:dsp
LIBS:microchip
LIBS:analog_switches
LIBS:motorola
LIBS:texas
LIBS:intel
LIBS:audio
LIBS:interface
LIBS:digital-audio
LIBS:philips
LIBS:display
LIBS:cypress
LIBS:siliconi
LIBS:opto
LIBS:atmel
LIBS:contrib
LIBS:valves
LIBS:K814P
LIBS:TRIAK-SW-cache
EELAYER 25 0
EELAYER END
$Descr A4 11693 8268
encoding utf-8
Sheet 1 1
Title ""
Date ""
Rev ""
Comp ""
Comment1 ""
Comment2 ""
Comment3 ""
Comment4 ""
$EndDescr
$Comp
L Q_TRIAC_AAG D1
U 1 1 59E24C6B
P 7625 3050
F 0 "D1" H 7750 3075 50  0000 L CNN
F 1 "BTB12-600CWRG" H 7175 3300 50  0000 L CNN
F 2 "TO_SOT_Packages_THT:TO-220-3_Vertical" V 7700 3075 50  0001 C CNN
F 3 "" V 7625 3050 50  0001 C CNN
	1    7625 3050
	1    0    0    -1  
$EndComp
$Comp
L K814P U2
U 1 1 59E27704
P 6675 2250
F 0 "U2" H 6475 2470 50  0000 L BNN
F 1 "K814P" H 6475 1949 50  0000 L BNN
F 2 "Housings_DIP:DIP-4_W7.62mm_LongPads" H 6675 2250 50  0001 L BNN
F 3 "DIP-4 Vishay" H 6675 2250 50  0001 L BNN
F 4 "Vishay" H 6675 2250 50  0001 L BNN "MF"
F 5 "0.26 USD" H 6675 2250 50  0001 L BNN "Price"
F 6 "K814P" H 6675 2250 50  0001 L BNN "MP"
F 7 "K814P Series 5 kV 20 % CTR Phototransistor Output Optocoupler Through Hole-DIP-4" H 6675 2250 50  0001 L BNN "Description"
F 8 "Good" H 6675 2250 50  0001 L BNN "Availability"
	1    6675 2250
	-1   0    0    -1  
$EndComp
$Comp
L CONN_01X04 J2
U 1 1 59E278DD
P 8200 3175
F 0 "J2" H 8200 3425 50  0000 C CNN
F 1 "MAINS" V 8300 3175 50  0000 C CNN
F 2 "suf_terminal_block:TerminalBlock_5.08x4" H 8200 3175 50  0001 C CNN
F 3 "" H 8200 3175 50  0001 C CNN
	1    8200 3175
	1    0    0    -1  
$EndComp
$Comp
L MOC3023M U1
U 1 1 59E27912
P 6625 3050
F 0 "U1" H 6415 3240 50  0000 L CNN
F 1 "MOC3023M" H 6425 2850 50  0000 L CNN
F 2 "Housings_DIP:DIP-6_W7.62mm_LongPads" H 6425 2850 50  0001 L CIN
F 3 "" H 6600 3050 50  0001 L CNN
	1    6625 3050
	1    0    0    -1  
$EndComp
$Comp
L Earth #PWR5
U 1 1 59E27A29
P 7950 3400
F 0 "#PWR5" H 7950 3150 50  0001 C CNN
F 1 "Earth" H 7950 3250 50  0001 C CNN
F 2 "" H 7950 3400 50  0001 C CNN
F 3 "" H 7950 3400 50  0001 C CNN
	1    7950 3400
	1    0    0    -1  
$EndComp
$Comp
L AC #PWR4
U 1 1 59E27A45
P 7950 2875
F 0 "#PWR4" H 7950 2775 50  0001 C CNN
F 1 "AC" H 7950 3125 50  0000 C CNN
F 2 "" H 7950 2875 50  0001 C CNN
F 3 "" H 7950 2875 50  0001 C CNN
	1    7950 2875
	1    0    0    -1  
$EndComp
$Comp
L R R3
U 1 1 59E27A90
P 7875 2150
F 0 "R3" V 7955 2150 50  0000 C CNN
F 1 "7,5K/2W" V 7775 2100 50  0000 C CNN
F 2 "Resistors_ThroughHole:R_Axial_DIN0411_L9.9mm_D3.6mm_P12.70mm_Horizontal" V 7805 2150 50  0001 C CNN
F 3 "" H 7875 2150 50  0001 C CNN
	1    7875 2150
	0    1    1    0   
$EndComp
$Comp
L AC #PWR6
U 1 1 59E27B36
P 8100 2100
F 0 "#PWR6" H 8100 2000 50  0001 C CNN
F 1 "AC" H 8100 2350 50  0000 C CNN
F 2 "" H 8100 2100 50  0001 C CNN
F 3 "" H 8100 2100 50  0001 C CNN
	1    8100 2100
	1    0    0    -1  
$EndComp
$Comp
L Earth #PWR7
U 1 1 59E27B53
P 8100 2450
F 0 "#PWR7" H 8100 2200 50  0001 C CNN
F 1 "Earth" H 8100 2300 50  0001 C CNN
F 2 "" H 8100 2450 50  0001 C CNN
F 3 "" H 8100 2450 50  0001 C CNN
	1    8100 2450
	1    0    0    -1  
$EndComp
$Comp
L R R1
U 1 1 59E27D1A
P 7125 2950
F 0 "R1" V 7205 2950 50  0000 C CNN
F 1 "390" V 7125 2950 50  0000 C CNN
F 2 "Resistors_ThroughHole:R_Axial_DIN0207_L6.3mm_D2.5mm_P10.16mm_Horizontal" V 7055 2950 50  0001 C CNN
F 3 "" H 7125 2950 50  0001 C CNN
	1    7125 2950
	0    1    1    0   
$EndComp
Text Notes 6325 1500 0    60   ~ 0
Isolation barrier
$Comp
L GND #PWR3
U 1 1 59E27E30
P 6250 3225
F 0 "#PWR3" H 6250 2975 50  0001 C CNN
F 1 "GND" H 6250 3075 50  0000 C CNN
F 2 "" H 6250 3225 50  0001 C CNN
F 3 "" H 6250 3225 50  0001 C CNN
	1    6250 3225
	1    0    0    -1  
$EndComp
$Comp
L GND #PWR2
U 1 1 59E27E79
P 6000 2425
F 0 "#PWR2" H 6000 2175 50  0001 C CNN
F 1 "GND" H 6000 2275 50  0000 C CNN
F 2 "" H 6000 2425 50  0001 C CNN
F 3 "" H 6000 2425 50  0001 C CNN
	1    6000 2425
	1    0    0    -1  
$EndComp
$Comp
L CONN_01X03 J1
U 1 1 59E27EB5
P 5525 3050
F 0 "J1" H 5525 3250 50  0000 C CNN
F 1 "DIO" V 5625 3050 50  0000 C CNN
F 2 "suf_connector_ncw:CONN_NCW254-03S" H 5525 3050 50  0001 C CNN
F 3 "" H 5525 3050 50  0001 C CNN
	1    5525 3050
	-1   0    0    -1  
$EndComp
$Comp
L GND #PWR1
U 1 1 59E27F52
P 5800 3225
F 0 "#PWR1" H 5800 2975 50  0001 C CNN
F 1 "GND" H 5800 3075 50  0000 C CNN
F 2 "" H 5800 3225 50  0001 C CNN
F 3 "" H 5800 3225 50  0001 C CNN
	1    5800 3225
	1    0    0    -1  
$EndComp
$Comp
L R R2
U 1 1 59E28352
P 7425 2900
F 0 "R2" V 7505 2900 50  0000 C CNN
F 1 "470" V 7425 2900 50  0000 C CNN
F 2 "Resistors_ThroughHole:R_Axial_DIN0207_L6.3mm_D2.5mm_P10.16mm_Horizontal" V 7355 2900 50  0001 C CNN
F 3 "" H 7425 2900 50  0001 C CNN
	1    7425 2900
	0    1    1    0   
$EndComp
$Comp
L C_Small C1
U 1 1 59E283AD
P 7450 3225
F 0 "C1" H 7460 3295 50  0000 L CNN
F 1 "47nF/300VAC" H 7460 3145 50  0000 L CNN
F 2 "Capacitors_ThroughHole:C_Rect_L18.0mm_W5.0mm_P15.00mm_FKS3_FKP3" H 7450 3225 50  0001 C CNN
F 3 "" H 7450 3225 50  0001 C CNN
	1    7450 3225
	0    1    1    0   
$EndComp
Wire Wire Line
	8000 3125 7950 3125
Wire Wire Line
	7950 3125 7950 3400
Wire Wire Line
	8000 3325 7950 3325
Connection ~ 7950 3325
Wire Wire Line
	7950 2875 7950 3025
Wire Wire Line
	7950 3025 8000 3025
Wire Wire Line
	7275 2150 7350 2150
Wire Wire Line
	7275 2350 7350 2350
Wire Wire Line
	7575 2900 7950 2900
Connection ~ 7950 2900
Wire Wire Line
	7625 3200 7625 3225
Wire Wire Line
	7550 3225 8000 3225
Wire Notes Line
	6625 1550 6625 3650
Wire Wire Line
	6325 3150 6250 3150
Wire Wire Line
	6250 3150 6250 3225
Wire Wire Line
	6075 2350 6000 2350
Wire Wire Line
	6000 2350 6000 2425
Wire Wire Line
	5725 3150 5800 3150
Wire Wire Line
	5800 3150 5800 3225
Wire Wire Line
	5725 2950 5725 2150
Wire Wire Line
	5725 2150 6075 2150
Wire Wire Line
	5725 3050 5975 3050
Wire Wire Line
	5975 3050 5975 2950
Wire Wire Line
	5975 2950 6325 2950
Wire Wire Line
	7275 2900 7275 3225
Wire Wire Line
	7275 3225 7350 3225
Connection ~ 7275 2950
Wire Wire Line
	6975 2950 6925 2950
Connection ~ 7625 3225
Wire Wire Line
	6925 3150 7475 3150
Connection ~ 7625 2900
Wire Wire Line
	8025 2350 8100 2350
Wire Wire Line
	8100 2350 8100 2450
Wire Wire Line
	8100 2150 8100 2100
Wire Wire Line
	8025 2150 8100 2150
$Comp
L R R6
U 1 1 59E29057
P 7875 2350
F 0 "R6" V 7955 2350 50  0000 C CNN
F 1 "7,5K/2W" V 8025 2300 50  0000 C CNN
F 2 "Resistors_ThroughHole:R_Axial_DIN0411_L9.9mm_D3.6mm_P12.70mm_Horizontal" V 7805 2350 50  0001 C CNN
F 3 "" H 7875 2350 50  0001 C CNN
	1    7875 2350
	0    1    1    0   
$EndComp
$Comp
L R R4
U 1 1 59E290C7
P 7500 2150
F 0 "R4" V 7580 2150 50  0000 C CNN
F 1 "7,5K/2W" V 7400 2025 50  0000 C CNN
F 2 "Resistors_ThroughHole:R_Axial_DIN0411_L9.9mm_D3.6mm_P12.70mm_Horizontal" V 7430 2150 50  0001 C CNN
F 3 "" H 7500 2150 50  0001 C CNN
	1    7500 2150
	0    1    1    0   
$EndComp
$Comp
L R R5
U 1 1 59E290CD
P 7500 2350
F 0 "R5" V 7580 2350 50  0000 C CNN
F 1 "7,5K/2W" V 7650 2200 50  0000 C CNN
F 2 "Resistors_ThroughHole:R_Axial_DIN0411_L9.9mm_D3.6mm_P12.70mm_Horizontal" V 7430 2350 50  0001 C CNN
F 3 "" H 7500 2350 50  0001 C CNN
	1    7500 2350
	0    1    1    0   
$EndComp
Wire Wire Line
	7725 2150 7650 2150
Wire Wire Line
	7725 2350 7650 2350
$EndSCHEMATC
