EESchema Schematic File Version 4
LIBS:MOSFET-SW-cache
EELAYER 26 0
EELAYER END
$Descr A4 11693 8268
encoding utf-8
Sheet 1 1
Title "MOSFET Switch D2PACK7"
Date "2018-10-04"
Rev "R0001"
Comp ""
Comment1 ""
Comment2 ""
Comment3 ""
Comment4 ""
$EndDescr
$Comp
L suf_transistor:MOSFET_N_D2PAK-7 Q1
U 1 1 59CA69D8
P 7150 3700
F 0 "Q1" H 7000 3925 60  0000 C CNN
F 1 "AUIRF3805S" H 7650 3700 60  0000 C CNN
F 2 "TO_SOT_Packages_SMD:TO-220-7Lead_TabPin8" H 7150 3700 60  0001 C CNN
F 3 "" H 7150 3700 60  0000 C CNN
	1    7150 3700
	1    0    0    -1  
$EndComp
$Comp
L Device:R R2
U 1 1 59CA6AA7
P 5625 4075
F 0 "R2" V 5705 4075 50  0000 C CNN
F 1 "100K" V 5625 4075 50  0000 C CNN
F 2 "Resistors_SMD:R_0603_HandSoldering" V 5555 4075 50  0001 C CNN
F 3 "" H 5625 4075 50  0001 C CNN
	1    5625 4075
	1    0    0    -1  
$EndComp
$Comp
L Device:R R1
U 1 1 59CA6B54
P 5350 3775
F 0 "R1" V 5430 3775 50  0000 C CNN
F 1 "100" V 5350 3775 50  0000 C CNN
F 2 "Resistors_SMD:R_0603_HandSoldering" V 5280 3775 50  0001 C CNN
F 3 "" H 5350 3775 50  0001 C CNN
	1    5350 3775
	0    1    1    0   
$EndComp
$Comp
L conn:Conn_01x02 J1
U 1 1 59CA6D85
P 4925 3775
F 0 "J1" H 4925 3925 50  0000 C CNN
F 1 "IN" H 4925 3575 50  0000 C CNN
F 2 "Pin_Headers:Pin_Header_Straight_1x02_Pitch2.54mm" H 4925 3775 50  0001 C CNN
F 3 "" H 4925 3775 50  0001 C CNN
	1    4925 3775
	-1   0    0    -1  
$EndComp
$Comp
L Device:D_Schottky_x2_KCom_AKA D1
U 1 1 59CA7216
P 7225 3125
F 0 "D1" H 7375 3000 50  0000 C CNN
F 1 "MBRB20200CTG" H 7550 3275 50  0000 C CNN
F 2 "TO_SOT_Packages_SMD:TO-263-2" H 7225 3125 50  0001 C CNN
F 3 "" H 7225 3125 50  0001 C CNN
	1    7225 3125
	-1   0    0    1   
$EndComp
$Comp
L power:GND #PWR6
U 1 1 59CA740D
P 5125 3975
F 0 "#PWR6" H 5125 3725 50  0001 C CNN
F 1 "GND" H 5125 3825 50  0000 C CNN
F 2 "" H 5125 3975 50  0001 C CNN
F 3 "" H 5125 3975 50  0001 C CNN
	1    5125 3975
	1    0    0    -1  
$EndComp
$Comp
L power:GND #PWR7
U 1 1 59CA743D
P 5625 4300
F 0 "#PWR7" H 5625 4050 50  0001 C CNN
F 1 "GND" H 5625 4150 50  0000 C CNN
F 2 "" H 5625 4300 50  0001 C CNN
F 3 "" H 5625 4300 50  0001 C CNN
	1    5625 4300
	1    0    0    -1  
$EndComp
$Comp
L power:GND #PWR11
U 1 1 59CA745F
P 7000 4200
F 0 "#PWR11" H 7000 3950 50  0001 C CNN
F 1 "GND" H 7000 4050 50  0000 C CNN
F 2 "" H 7000 4200 50  0001 C CNN
F 3 "" H 7000 4200 50  0001 C CNN
	1    7000 4200
	1    0    0    -1  
$EndComp
$Comp
L power:GND #PWR13
U 1 1 59CA7488
P 7550 3275
F 0 "#PWR13" H 7550 3025 50  0001 C CNN
F 1 "GND" H 7550 3125 50  0000 C CNN
F 2 "" H 7550 3275 50  0001 C CNN
F 3 "" H 7550 3275 50  0001 C CNN
	1    7550 3275
	1    0    0    -1  
$EndComp
$Comp
L power:+12V #PWR9
U 1 1 59CA74D3
P 6175 3175
F 0 "#PWR9" H 6175 3025 50  0001 C CNN
F 1 "+12V" H 6175 3315 50  0000 C CNN
F 2 "" H 6175 3175 50  0001 C CNN
F 3 "" H 6175 3175 50  0001 C CNN
	1    6175 3175
	1    0    0    -1  
$EndComp
Wire Wire Line
	7225 2825 7225 2875
Wire Wire Line
	7225 3225 7225 3325
Wire Wire Line
	7225 2875 7450 2875
Wire Wire Line
	7450 2875 7450 3025
Wire Wire Line
	7450 3025 7575 3025
Connection ~ 7225 2875
Wire Wire Line
	7000 4100 7000 4150
Wire Wire Line
	5500 3775 5625 3775
Wire Wire Line
	5625 3925 5625 3775
Connection ~ 5625 3775
Wire Wire Line
	5625 4225 5625 4300
Wire Wire Line
	7575 2725 7575 2825
Wire Wire Line
	5200 3775 5125 3775
Wire Wire Line
	5125 3875 5125 3975
Wire Wire Line
	6925 3125 6925 3225
Wire Wire Line
	6925 3225 7225 3225
Wire Wire Line
	7525 3225 7525 3125
Connection ~ 7225 3225
Wire Wire Line
	7525 3125 7575 3125
Wire Wire Line
	7300 4100 7300 4150
Wire Wire Line
	7300 4150 7225 4150
Connection ~ 7000 4150
Wire Wire Line
	7075 4100 7075 4150
Connection ~ 7075 4150
Wire Wire Line
	7150 4100 7150 4150
Connection ~ 7150 4150
Wire Wire Line
	7225 4100 7225 4150
Connection ~ 7225 4150
$Comp
L suf_mosfet_driver:TC4452 U2
U 1 1 59DA4119
P 6175 3775
F 0 "U2" H 6375 3475 60  0000 C CNN
F 1 "TC4452" H 6475 4075 60  0000 C CNN
F 2 "Housings_SOIC:SOIC-8_3.9x4.9mm_Pitch1.27mm" H 6175 3875 60  0001 C CNN
F 3 "" H 6175 3875 60  0000 C CNN
	1    6175 3775
	1    0    0    -1  
$EndComp
Wire Wire Line
	6625 3725 6775 3725
Wire Wire Line
	6775 3725 6775 3775
Wire Wire Line
	6775 3825 6625 3825
Connection ~ 6775 3775
Wire Wire Line
	6125 3325 6125 3175
Wire Wire Line
	5875 3175 6125 3175
Wire Wire Line
	6225 3175 6225 3325
Connection ~ 6175 3175
$Comp
L power:VDD #PWR12
U 1 1 59DA42DA
P 7225 2825
F 0 "#PWR12" H 7225 2675 50  0001 C CNN
F 1 "VDD" H 7225 2975 50  0000 C CNN
F 2 "" H 7225 2825 50  0001 C CNN
F 3 "" H 7225 2825 50  0001 C CNN
	1    7225 2825
	1    0    0    -1  
$EndComp
$Comp
L power:VDD #PWR14
U 1 1 59DA42FE
P 7575 2725
F 0 "#PWR14" H 7575 2575 50  0001 C CNN
F 1 "VDD" H 7575 2875 50  0000 C CNN
F 2 "" H 7575 2725 50  0001 C CNN
F 3 "" H 7575 2725 50  0001 C CNN
	1    7575 2725
	1    0    0    -1  
$EndComp
$Comp
L suf_regulator:LM7812 U1
U 1 1 59DA4322
P 3600 3300
F 0 "U1" H 3750 3104 50  0000 C CNN
F 1 "MC78M12" H 3600 3500 50  0000 C CNN
F 2 "TO_SOT_Packages_SMD:TO-252-2" H 3600 3300 50  0001 C CNN
F 3 "" H 3600 3300 50  0001 C CNN
	1    3600 3300
	1    0    0    -1  
$EndComp
$Comp
L Device:C_Small C1
U 1 1 59DA4388
P 3125 3500
F 0 "C1" H 3135 3570 50  0000 L CNN
F 1 "10uF/50V" H 3135 3420 50  0000 L CNN
F 2 "Capacitors_SMD:C_1210_HandSoldering" H 3125 3500 50  0001 C CNN
F 3 "" H 3125 3500 50  0001 C CNN
	1    3125 3500
	1    0    0    -1  
$EndComp
$Comp
L Device:C_Small C2
U 1 1 59DA43C7
P 4125 3500
F 0 "C2" H 4135 3570 50  0000 L CNN
F 1 "1uF/25V" H 4135 3420 50  0000 L CNN
F 2 "Capacitors_SMD:C_0603_HandSoldering" H 4125 3500 50  0001 C CNN
F 3 "" H 4125 3500 50  0001 C CNN
	1    4125 3500
	1    0    0    -1  
$EndComp
$Comp
L Device:C_Small C3
U 1 1 59DA4412
P 5875 3300
F 0 "C3" H 5885 3370 50  0000 L CNN
F 1 "10uF/50V" H 5475 3225 50  0000 L CNN
F 2 "Capacitors_SMD:C_1210_HandSoldering" H 5875 3300 50  0001 C CNN
F 3 "" H 5875 3300 50  0001 C CNN
	1    5875 3300
	1    0    0    -1  
$EndComp
$Comp
L Device:R_Small R3
U 1 1 59DA45AB
P 3600 2925
F 0 "R3" H 3630 2945 50  0000 L CNN
F 1 "0R" H 3630 2885 50  0000 L CNN
F 2 "Resistors_SMD:R_0805_HandSoldering" H 3600 2925 50  0001 C CNN
F 3 "" H 3600 2925 50  0001 C CNN
	1    3600 2925
	0    1    1    0   
$EndComp
$Comp
L power:VDD #PWR1
U 1 1 59DA4656
P 3125 2875
F 0 "#PWR1" H 3125 2725 50  0001 C CNN
F 1 "VDD" H 3125 3025 50  0000 C CNN
F 2 "" H 3125 2875 50  0001 C CNN
F 3 "" H 3125 2875 50  0001 C CNN
	1    3125 2875
	1    0    0    -1  
$EndComp
$Comp
L power:+12V #PWR4
U 1 1 59DA4688
P 4125 2900
F 0 "#PWR4" H 4125 2750 50  0001 C CNN
F 1 "+12V" H 4125 3040 50  0000 C CNN
F 2 "" H 4125 2900 50  0001 C CNN
F 3 "" H 4125 2900 50  0001 C CNN
	1    4125 2900
	1    0    0    -1  
$EndComp
Wire Wire Line
	4125 2900 4125 2925
Wire Wire Line
	4000 3250 4125 3250
Connection ~ 4125 3250
Wire Wire Line
	3125 2875 3125 2925
Wire Wire Line
	3200 3250 3125 3250
Connection ~ 3125 3250
$Comp
L power:GND #PWR2
U 1 1 59DA48DC
P 3125 3675
F 0 "#PWR2" H 3125 3425 50  0001 C CNN
F 1 "GND" H 3125 3525 50  0000 C CNN
F 2 "" H 3125 3675 50  0001 C CNN
F 3 "" H 3125 3675 50  0001 C CNN
	1    3125 3675
	1    0    0    -1  
$EndComp
$Comp
L power:GND #PWR3
U 1 1 59DA490E
P 3600 3675
F 0 "#PWR3" H 3600 3425 50  0001 C CNN
F 1 "GND" H 3600 3525 50  0000 C CNN
F 2 "" H 3600 3675 50  0001 C CNN
F 3 "" H 3600 3675 50  0001 C CNN
	1    3600 3675
	1    0    0    -1  
$EndComp
$Comp
L power:GND #PWR5
U 1 1 59DA4940
P 4125 3675
F 0 "#PWR5" H 4125 3425 50  0001 C CNN
F 1 "GND" H 4125 3525 50  0000 C CNN
F 2 "" H 4125 3675 50  0001 C CNN
F 3 "" H 4125 3675 50  0001 C CNN
	1    4125 3675
	1    0    0    -1  
$EndComp
Wire Wire Line
	3125 3600 3125 3675
Wire Wire Line
	3600 3550 3600 3675
Wire Wire Line
	4125 3600 4125 3675
Wire Wire Line
	3500 2925 3125 2925
Connection ~ 3125 2925
Wire Wire Line
	3700 2925 4125 2925
Connection ~ 4125 2925
Wire Wire Line
	5875 3175 5875 3200
Connection ~ 6125 3175
$Comp
L power:GND #PWR8
U 1 1 59DA4AF0
P 5875 3450
F 0 "#PWR8" H 5875 3200 50  0001 C CNN
F 1 "GND" H 5875 3300 50  0000 C CNN
F 2 "" H 5875 3450 50  0001 C CNN
F 3 "" H 5875 3450 50  0001 C CNN
	1    5875 3450
	1    0    0    -1  
$EndComp
Wire Wire Line
	5875 3400 5875 3450
$Comp
L power:GND #PWR10
U 1 1 59DA4C34
P 6175 4300
F 0 "#PWR10" H 6175 4050 50  0001 C CNN
F 1 "GND" H 6175 4150 50  0000 C CNN
F 2 "" H 6175 4300 50  0001 C CNN
F 3 "" H 6175 4300 50  0001 C CNN
	1    6175 4300
	1    0    0    -1  
$EndComp
Wire Wire Line
	6125 4225 6125 4300
Wire Wire Line
	6125 4300 6175 4300
Wire Wire Line
	6225 4300 6225 4225
Connection ~ 6175 4300
$Comp
L conn:Conn_01x04 J2
U 1 1 59DA689B
P 7775 2925
F 0 "J2" H 7775 3175 50  0000 C CNN
F 1 "IN/OUT" V 7875 2925 50  0000 C CNN
F 2 "suf_terminal_block:DG88-04P-13-10AH" H 7775 2925 50  0001 C CNN
F 3 "" H 7775 2925 50  0001 C CNN
	1    7775 2925
	1    0    0    -1  
$EndComp
Wire Wire Line
	7550 3275 7550 2925
Wire Wire Line
	7550 2925 7575 2925
Wire Wire Line
	7225 2875 7225 2925
Wire Wire Line
	5625 3775 5775 3775
Wire Wire Line
	7225 3225 7525 3225
Wire Wire Line
	7000 4150 7000 4200
Wire Wire Line
	7075 4150 7000 4150
Wire Wire Line
	7150 4150 7075 4150
Wire Wire Line
	7225 4150 7150 4150
Wire Wire Line
	6775 3775 6775 3825
Wire Wire Line
	6175 3175 6225 3175
Wire Wire Line
	4125 3250 4125 3400
Wire Wire Line
	3125 3250 3125 3400
Wire Wire Line
	3125 2925 3125 3250
Wire Wire Line
	4125 2925 4125 3250
Wire Wire Line
	6125 3175 6175 3175
Wire Wire Line
	6175 4300 6225 4300
Connection ~ 7525 3125
$EndSCHEMATC
